dump.vcd
$version Generated by VerilatedVcd $end
$timescale 1ps $end
 $scope module  $end
  $var wire 4 # a_in [3:0] $end
  $var wire 4 $ b_in [3:0] $end
  $var wire 1 % clk $end
  $var wire 1 & scan_en $end
  $var wire 1 ' scan_in $end
  $var wire 1 ( scan_out $end
  $var wire 5 ) x_out [4:0] $end
  $scope module adder $end
   $var wire 4 * a_in [3:0] $end
   $var wire 1 + a_reg[0] $end
   $var wire 1 , a_reg[1] $end
   $var wire 1 - a_reg[2] $end
   $var wire 1 . a_reg[3] $end
   $var wire 4 / b_in [3:0] $end
   $var wire 1 0 b_reg[0] $end
   $var wire 1 1 b_reg[1] $end
   $var wire 1 2 b_reg[2] $end
   $var wire 1 3 b_reg[3] $end
   $var wire 1 4 clk $end
   $var wire 1 5 scan_en $end
   $var wire 1 6 scan_in $end
   $var wire 1 7 scan_out $end
   $var wire 5 8 x_out [4:0] $end
  $upscope $end
 $upscope $end
$enddefinitions $end


#0
b0000 #
b0000 $
1%
1&
1'
0(
b00001 )
b0000 *
0+
0,
0-
0.
b0000 /
00
01
02
03
14
15
16
07
b00001 8
#10000
0%
04
#20000
1%
0'
b00010 )
14
06
b00010 8
#30000
0%
04
#40000
1%
1'
b00101 )
14
16
b00101 8
#50000
0%
04
#60000
1%
b01011 )
14
b01011 8
#70000
0%
04
#80000
1%
0'
b10110 )
14
06
b10110 8
#90000
0%
04
#100000
1%
1'
b01101 )
1+
14
16
b01101 8
#110000
0%
04
#120000
1%
0'
b11010 )
0+
1,
14
06
b11010 8
#130000
0%
04
#140000
1%
b10100 )
1+
0,
1-
14
b10100 8
#150000
0%
04
#160000
1%
b01000 )
1,
0-
1.
14
b01000 8
#170000
0%
04
#180000
1%
b10000 )
0+
1-
0.
10
14
b10000 8
#190000
0%
04
#200000
1%
b00000 )
1+
0,
1.
00
11
14
b00000 8
#210000
0%
04
#220000
1%
0+
1,
0-
10
01
12
14
#230000
0%
04
#240000
1%
1(
0,
1-
0.
11
02
13
14
17
#250000
0%
04
#260000
1%
0&
0(
b01111 )
0-
00
01
03
14
05
07
b01111 8
#270000
0%
04
#280000
1%
1&
b11110 )
14
15
b11110 8
#290000
0%
04
#300000
1%
b11100 )
1+
14
b11100 8
#310000
0%
04
#320000
1%
b11000 )
1,
14
b11000 8
#330000
0%
04
#340000
1%
b10000 )
1-
14
b10000 8
#350000
0%
04
#360000
1%
b00000 )
1.
14
b00000 8
#370000
0%
04
#380000
1%
0+
10
14
#390000
0%
04
#400000
1%
0,
11
14
#410000
0%
04
#420000
1%
0-
12
14
#430000
0%
04
#440000
1%
1(
0.
13
14
17
#450000
0%
04
#460000
1%
00
14
#470000
0%
04
#480000
1%
01
14
#490000
0%
04
#500000
1%
02
14
#510000
0%
04
#520000
1%
0(
03
14
07
#530000
0%
04
#540000
1%
14
#550000
0%
04
#560000
1%
14
#570000
0%
04
#580000
1%
1'
b00001 )
14
16
b00001 8
#590000
0%
04
#600000
1%
b00011 )
14
b00011 8
#610000
0%
04
#620000
1%
0'
b00110 )
14
06
b00110 8
#630000
0%
04
#640000
1%
b01100 )
14
b01100 8
#650000
0%
04
#660000
1%
1'
b11001 )
14
16
b11001 8
#670000
0%
04
#680000
1%
b10011 )
1+
14
b10011 8
#690000
0%
04
#700000
1%
0'
b00110 )
1,
14
06
b00110 8
#710000
0%
04
#720000
1%
b01100 )
0+
1-
14
b01100 8
#730000
0%
04
#740000
1%
b11000 )
0,
1.
14
b11000 8
#750000
0%
04
#760000
1%
b10000 )
1+
0-
10
14
b10000 8
#770000
0%
04
#780000
1%
b00000 )
1,
0.
11
14
b00000 8
#790000
0%
04
#800000
1%
0&
b00110 )
0+
0,
00
01
14
05
b00110 8
#810000
0%
04
#820000
1%
1&
b01100 )
14
15
b01100 8
#830000
0%
04
#840000
1%
b11000 )
14
b11000 8
#850000
0%
04
#860000
1%
b10000 )
1+
14
b10000 8
#870000
0%
04
#880000
1%
b00000 )
1,
14
b00000 8
#890000
0%
04
#900000
1%
0+
1-
14
#910000
0%
04
#920000
1%
0,
1.
14
#930000
0%
04
#940000
1%
0-
10
14
#950000
0%
04
#960000
1%
0.
11
14
#970000
0%
04
#980000
1%
00
12
14
#990000
0%
04
#1000000
1%
1(
01
13
14
17
#1010000
0%
04
#1020000
1%
02
14
#1030000
0%
04
#1040000
1%
0(
03
14
07
#1050000
0%
04
#1060000
1%
14
#1070000
0%
04
#1080000
1%
1'
b00001 )
14
16
b00001 8
#1090000
0%
04
#1100000
1%
b00011 )
14
b00011 8
#1110000
0%
04
#1120000
1%
b00111 )
14
b00111 8
#1130000
0%
04
#1140000
1%
b01111 )
14
b01111 8
#1150000
0%
04
#1160000
1%
0'
b11110 )
14
06
b11110 8
#1170000
0%
04
#1180000
1%
b11100 )
1+
14
b11100 8
#1190000
0%
04
#1200000
1%
b11000 )
1,
14
b11000 8
#1210000
0%
04
#1220000
1%
1'
b10001 )
1-
14
16
b10001 8
#1230000
0%
04
#1240000
1%
0'
b00010 )
1.
14
06
b00010 8
#1250000
0%
04
#1260000
1%
b00100 )
0+
10
14
b00100 8
#1270000
0%
04
#1280000
1%
b01000 )
0,
11
14
b01000 8
#1290000
0%
04
#1300000
1%
b10000 )
0-
12
14
b10000 8
#1310000
0%
04
#1320000
1%
1(
b00000 )
1+
0.
13
14
17
b00000 8
#1330000
0%
04
#1340000
1%
0&
0(
b10000 )
0+
00
01
02
03
14
05
07
b10000 8
#1350000
0%
04
#1360000
1%
1&
b00000 )
1+
14
15
b00000 8
#1370000
0%
04
#1380000
1%
0+
1,
14
#1390000
0%
04
#1400000
1%
0,
1-
14
#1410000
0%
04
#1420000
1%
0-
1.
14
#1430000
0%
04
#1440000
1%
0.
10
14
#1450000
0%
04
#1460000
1%
00
11
14
#1470000
0%
04
#1480000
1%
01
12
14
#1490000
0%
04
#1500000
1%
1(
02
13
14
17
#1510000
0%
04
#1520000
1%
0(
03
14
07
#1530000
0%
04
#1540000
1%
14
#1550000
0%
04
#1560000
1%
14
#1570000
0%
04
#1580000
1%
14
#1590000
0%
04
#1600000
1%
14
#1610000
0%
04
#1620000
1%
14
#1630000
0%
04
#1640000
1%
14
#1650000
0%
04
#1660000
1%
14
#1670000
0%
04
#1680000
1%
14
#1690000
0%
04
#1700000
1%
14
#1710000
0%
04
#1720000
1%
14
#1730000
0%
04
#1740000
1%
14
#1750000
0%
04
#1760000
1%
14
#1770000
0%
04
#1780000
1%
14
#1790000
0%
04
#1800000
1%
14
#1810000
0%
04
#1820000
1%
14
#1830000
0%
04
#1840000
1%
14
#1850000
0%
04
#1860000
1%
14
#1870000
0%
04
#1880000
1%
0&
14
05
#1890000
0%
04
#1900000
1%
1&
14
15
#1910000
0%
04
#1920000
1%
14
#1930000
0%
04
#1940000
1%
14
#1950000
0%
04
#1960000
1%
14
#1970000
0%
04
#1980000
1%
14
#1990000
0%
04
#2000000
1%
14
#2010000
0%
04
#2020000
1%
14
#2030000
0%
04
#2040000
1%
14
#2050000
0%
04
#2060000
1%
14
#2070000
0%
04
#2080000
1%
14
#2090000
0%
04
#2100000
1%
14
#2110000
0%
04
#2120000
1%
14
#2130000
0%
04
#2140000
1%
14
#2150000
0%
04
#2160000
1%
14
#2170000
0%
04
#2180000
1%
1'
b00001 )
14
16
b00001 8
#2190000
0%
04
#2200000
1%
b00011 )
14
b00011 8
#2210000
0%
04
#2220000
1%
0'
b00110 )
14
06
b00110 8
#2230000
0%
04
#2240000
1%
1'
b01101 )
14
16
b01101 8
#2250000
0%
04
#2260000
1%
0'
b11010 )
14
06
b11010 8
#2270000
0%
04
#2280000
1%
b10100 )
1+
14
b10100 8
#2290000
0%
04
#2300000
1%
1'
b01001 )
1,
14
16
b01001 8
#2310000
0%
04
#2320000
1%
0'
b10010 )
0+
1-
14
06
b10010 8
#2330000
0%
04
#2340000
1%
b00100 )
1+
0,
1.
14
b00100 8
#2350000
0%
04
#2360000
1%
b01000 )
0+
1,
0-
10
14
b01000 8
#2370000
0%
04
#2380000
1%
b10000 )
0,
1-
0.
11
14
b10000 8
#2390000
0%
04
#2400000
1%
b00000 )
1+
0-
1.
00
12
14
b00000 8
#2410000
0%
04
#2420000
1%
0&
b01111 )
0+
0.
01
02
14
05
b01111 8
#2430000
0%
04
#2440000
1%
1&
b11110 )
14
15
b11110 8
#2450000
0%
04
#2460000
1%
b11100 )
1+
14
b11100 8
#2470000
0%
04
#2480000
1%
b11000 )
1,
14
b11000 8
#2490000
0%
04
#2500000
1%
b10000 )
1-
14
b10000 8
#2510000
0%
04
#2520000
1%
b00000 )
1.
14
b00000 8
#2530000
0%
04
#2540000
1%
0+
10
14
#2550000
0%
04
#2560000
1%
0,
11
14
#2570000
0%
04
#2580000
1%
0-
12
14
#2590000
0%
04
#2600000
1%
1(
0.
13
14
17
#2610000
0%
04
#2620000
1%
00
14
#2630000
0%
04
#2640000
1%
01
14
#2650000
0%
04
#2660000
1%
02
14
#2670000
0%
04
#2680000
1%
0(
03
14
07
