dump.vcd
$version Generated by VerilatedVcd $end
$timescale 1ps $end
 $scope module  $end
  $var wire 1 # buf_en $end
  $var wire 1 $ clk $end
  $var wire 1 % data_avail $end
  $var wire 2 & out_sel [1:0] $end
  $var wire 1 ' out_writing $end
  $var wire 1 ( scan_en $end
  $var wire 1 ) scan_in $end
  $var wire 1 * scan_out $end
  $scope module hidden_fsm $end
   $var wire 1 + buf_en $end
   $var wire 1 , clk $end
   $var wire 1 - cur_state[0] $end
   $var wire 1 . cur_state[1] $end
   $var wire 1 / cur_state[2] $end
   $var wire 1 0 data_avail $end
   $var wire 1 1 nstate[0] $end
   $var wire 1 2 nstate[1] $end
   $var wire 1 3 nstate[2] $end
   $var wire 2 4 out_sel [1:0] $end
   $var wire 1 5 out_writing $end
   $var wire 1 6 scan_en $end
   $var wire 1 7 scan_in $end
   $var wire 1 8 scan_out $end
  $upscope $end
 $upscope $end
$enddefinitions $end


#0
1#
0$
0%
b00 &
0'
0(
0)
0*
1+
0,
0-
0.
0/
00
01
02
13
b00 4
05
06
07
08
#1000
1$
1(
1,
16
#11000
0$
0,
#21000
1$
1,
#31000
0$
0,
#41000
1$
1,
#51000
0$
0,
#61000
0(
06
#62000
#63000
1$
1,
#73000
0$
0,
#83000
1(
16
#84000
1$
1,
#94000
0$
0,
#104000
1$
1,
#114000
0$
0,
#124000
1$
1,
#134000
0$
0,
#144000
0(
06
#145000
1%
10
#146000
0#
1$
b01 &
1'
1*
0+
1,
1/
11
03
b01 4
15
18
#156000
0$
0,
#166000
1(
16
#167000
1#
1$
b00 &
0'
0*
1+
1,
0/
01
13
b00 4
05
08
#177000
0$
0,
#187000
1$
1,
#197000
0$
0,
#207000
1$
1,
#217000
0$
0,
#227000
0%
0(
00
06
#228000
1$
1(
1,
16
#238000
0$
0,
#248000
1$
1,
#258000
0$
0,
#268000
0#
1$
b10 &
1'
1)
0+
1,
1-
12
03
b10 4
15
17
#278000
0$
0,
#288000
0(
06
#289000
#290000
1$
b11 &
1,
0-
1.
11
b11 4
#300000
0$
0,
#310000
1(
16
#311000
1$
b01 &
0)
1*
1,
0.
1/
02
b01 4
07
18
#321000
0$
0,
#331000
1#
1$
b00 &
0'
0*
1+
1,
0/
01
13
b00 4
05
08
#341000
0$
0,
#351000
1$
1,
#361000
0$
0,
#371000
0(
06
#372000
1%
10
#373000
0#
1$
b01 &
1'
1*
0+
1,
1/
11
03
b01 4
15
18
#383000
0$
0,
#393000
1(
16
#394000
1#
1$
b00 &
0'
0*
1+
1,
0/
01
13
b00 4
05
08
#404000
0$
0,
#414000
1$
1,
#424000
0$
0,
#434000
1$
1,
#444000
0$
0,
#454000
0%
0(
00
06
#455000
1$
1(
1,
16
#465000
0$
0,
#475000
0#
1$
b10 &
1'
1)
0+
1,
1-
12
03
b10 4
15
17
#485000
0$
0,
#495000
1$
b11 &
0)
1,
0-
1.
11
b11 4
07
#505000
0$
0,
#515000
0(
06
#516000
#517000
1#
1$
b00 &
0'
1+
1,
1-
01
02
b00 4
05
#527000
0$
0,
#537000
1(
16
#538000
0#
1$
1*
0+
1,
0-
1/
13
18
#548000
0$
0,
#558000
1$
b01 &
1'
1,
0.
11
03
b01 4
15
#568000
0$
0,
#578000
1#
1$
b00 &
0'
0*
1+
1,
0/
01
13
b00 4
05
08
#588000
0$
0,
#598000
0(
06
#599000
1%
10
#600000
0#
1$
b01 &
1'
1*
0+
1,
1/
11
03
b01 4
15
18
#610000
0$
0,
#620000
1(
16
#621000
1#
1$
b00 &
0'
0*
1+
1,
0/
01
13
b00 4
05
08
#631000
0$
0,
#641000
1$
1,
#651000
0$
0,
#661000
1$
1,
#671000
0$
0,
#681000
0%
0(
00
06
#682000
1$
1(
1,
16
#692000
0$
0,
#702000
0#
1$
b10 &
1'
1)
0+
1,
1-
12
03
b10 4
15
17
#712000
0$
0,
#722000
1#
1$
b00 &
0'
1+
1,
1.
02
b00 4
05
#732000
0$
0,
#742000
0(
06
#743000
#744000
1$
1,
0-
0.
13
#754000
0$
0,
#764000
1(
16
#765000
1$
0)
1,
07
#775000
0$
0,
#785000
1$
1,
#795000
0$
0,
#805000
1$
1,
#815000
0$
0,
#825000
0(
06
#826000
1%
10
#827000
0#
1$
b01 &
1'
1*
0+
1,
1/
11
03
b01 4
15
18
#837000
0$
0,
#847000
1(
16
#848000
1#
1$
b00 &
0'
0*
1+
1,
0/
01
13
b00 4
05
08
#858000
0$
0,
#868000
1$
1,
#878000
0$
0,
#888000
1$
1,
#898000
0$
0,
#908000
0%
0(
00
06
#909000
0#
1$
b10 &
1'
1(
1)
0+
1,
1-
12
03
b10 4
15
16
17
#919000
0$
0,
#929000
1$
b11 &
0)
1,
0-
1.
11
b11 4
07
#939000
0$
0,
#949000
1$
b01 &
1*
1,
0.
1/
02
b01 4
18
#959000
0$
0,
#969000
0(
06
#970000
#971000
1$
b10 &
0*
1,
1-
0/
01
12
b10 4
08
#981000
0$
0,
#991000
1(
16
#992000
1$
b11 &
1,
0-
1.
11
b11 4
#1002000
0$
0,
#1012000
1$
b01 &
1*
1,
0.
1/
02
b01 4
18
#1022000
0$
0,
#1032000
1#
1$
b00 &
0'
0*
1+
1,
0/
01
13
b00 4
05
08
#1042000
0$
0,
#1052000
0(
06
#1053000
1%
10
#1054000
0#
1$
b01 &
1'
1*
0+
1,
1/
11
03
b01 4
15
18
#1064000
0$
0,
#1074000
1(
16
#1075000
1#
1$
b00 &
0'
0*
1+
1,
0/
01
13
b00 4
05
08
#1085000
0$
0,
#1095000
1$
1,
#1105000
0$
0,
#1115000
1$
1,
#1125000
0$
0,
#1135000
0%
0(
00
06
#1136000
0#
1$
b10 &
1'
1(
1)
0+
1,
1-
12
03
b10 4
15
16
17
#1146000
0$
0,
#1156000
1$
b11 &
0)
1,
0-
1.
11
b11 4
07
#1166000
0$
0,
#1176000
1$
b00 &
0'
1)
1*
1,
1-
0.
1/
01
02
13
b00 4
05
17
18
#1186000
0$
0,
#1196000
0(
06
#1197000
#1198000
1$
1,
#1208000
0$
0,
#1218000
1(
16
#1219000
1$
b11 &
1'
0)
0*
1,
0-
1.
0/
11
12
03
b11 4
15
07
08
#1229000
0$
0,
#1239000
1$
b01 &
1*
1,
0.
1/
02
b01 4
18
#1249000
0$
0,
#1259000
1#
1$
b00 &
0'
0*
1+
1,
0/
01
13
b00 4
05
08
#1269000
0$
0,
#1279000
0(
06
#1280000
1%
10
#1281000
0#
1$
b01 &
1'
1*
0+
1,
1/
11
03
b01 4
15
18
#1291000
0$
0,
#1301000
1(
16
#1302000
1#
1$
b00 &
0'
0*
1+
1,
0/
01
13
b00 4
05
08
#1312000
0$
0,
#1322000
1$
1,
#1332000
0$
0,
#1342000
1$
1,
#1352000
0$
0,
#1362000
0%
0(
00
06
#1363000
0#
1$
b10 &
1'
1(
1)
0+
1,
1-
12
03
b10 4
15
16
17
#1373000
0$
0,
#1383000
1#
1$
b00 &
0'
1+
1,
1.
02
b00 4
05
#1393000
0$
0,
#1403000
0#
1$
0)
1*
0+
1,
0-
1/
13
07
18
#1413000
0$
0,
#1423000
0(
06
#1424000
#1425000
1$
1,
#1435000
0$
0,
#1445000
1(
16
#1446000
1$
b01 &
1'
1,
0.
11
03
b01 4
15
#1456000
0$
0,
#1466000
1#
1$
b00 &
0'
0*
1+
1,
0/
01
13
b00 4
05
08
#1476000
0$
0,
#1486000
1$
1,
#1496000
0$
0,
#1506000
0(
06
#1507000
1%
10
#1508000
0#
1$
b01 &
1'
1*
0+
1,
1/
11
03
b01 4
15
18
#1518000
0$
0,
#1528000
1(
16
#1529000
1#
1$
b00 &
0'
0*
1+
1,
0/
01
13
b00 4
05
08
#1539000
0$
0,
#1549000
1$
1,
#1559000
0$
0,
#1569000
1$
1,
#1579000
0$
0,
#1589000
0%
0(
00
06
#1590000
0#
1$
b10 &
1'
1(
1)
0+
1,
1-
12
03
b10 4
15
16
17
#1600000
0$
0,
#1610000
1#
1$
b00 &
0'
1+
1,
1.
02
b00 4
05
#1620000
0$
0,
#1630000
0#
1$
1*
0+
1,
1/
13
18
#1640000
0$
0,
#1650000
0(
06
#1651000
#1652000
1$
1,
#1662000
0$
0,
#1672000
1(
16
#1673000
1$
0)
1,
0-
07
#1683000
0$
0,
#1693000
1$
b01 &
1'
1,
0.
11
03
b01 4
15
#1703000
0$
0,
#1713000
1#
1$
b00 &
0'
0*
1+
1,
0/
01
13
b00 4
05
08
#1723000
0$
0,
#1733000
0(
06
#1734000
1%
10
#1735000
0#
1$
b01 &
1'
1*
0+
1,
1/
11
03
b01 4
15
18
#1745000
0$
0,
#1755000
1(
16
#1756000
1#
1$
b00 &
0'
0*
1+
1,
0/
01
13
b00 4
05
08
#1766000
0$
0,
#1776000
1$
1,
#1786000
0$
0,
#1796000
1$
1,
#1806000
0$
0,
#1816000
0%
0(
00
06
